…
parallel::stopCluster(cl) # Stopping the parallel function


###### the end ###########
```

<div id="savingdata" />

## Adjusting the results and saving

```{r}
as_tibble(results.3) # Saving into a table
#> # A tibble: 760 x 5
#>       ID myIndex Func   VIs       imgFiles_name
#>    <int>   <dbl> <chr>  <list>    <chr>        
#>  1     1    115. mean   <chr [1]> WA_2018_08_15
#>  2     2    118. mean   <chr [1]> WA_2018_08_15
#>  3     3    119. mean   <chr [1]> WA_2018_08_15
#>  4     4    120. mean   <chr [1]> WA_2018_08_15
#>  5     5    134. mean   <chr [1]> WA_2018_08_15
#>  6     1    114. median <chr [1]> WA_2018_08_15
#>  7     2    116. median <chr [1]> WA_2018_08_15
#>  8     3    118. median <chr [1]> WA_2018_08_15
#>  9     4    120. median <chr [1]> WA_2018_08_15
#> 10     5    134. median <chr [1]> WA_2018_08_15
#> # ... with 750 more rows
…
